{
 "kind": "youtube#searchListResponse",
 "etag": "\"DuHzAJ-eQIiCIp7p4ldoVcVAOeY/YC9euCbtfbeiOKwdj36AhMp8-Nc\"",
 "nextPageToken": "CBkQAA",
 "regionCode": "BR",
 "pageInfo": {
  "totalResults": 1000000,
  "resultsPerPage": 25
 },
 "items": [
  {
   "kind": "youtube#searchResult",
   "etag": "\"DuHzAJ-eQIiCIp7p4ldoVcVAOeY/oja2LXS4iUJqtoSG4F4Hv506jbk\"",
   "id": {
    "kind": "youtube#video",
    "videoId": "eaF6ysI-GQg"
   },
   "snippet": {
    "publishedAt": "2018-03-25T20:32:39.000Z",
    "channelId": "UC8c-pujvLofv0OYlgyXUUvQ",
    "title": "Teste de fidelidade!!policiais falsos chegam e arrumam barraco no teste",
    "description": "",
    "thumbnails": {
     "default": {
      "url": "https://i.ytimg.com/vi/eaF6ysI-GQg/default.jpg",
      "width": 120,
      "height": 90
     },
     "medium": {
      "url": "https://i.ytimg.com/vi/eaF6ysI-GQg/mqdefault.jpg",
      "width": 320,
      "height": 180
     },
     "high": {
      "url": "https://i.ytimg.com/vi/eaF6ysI-GQg/hqdefault.jpg",
      "width": 480,
      "height": 360
     }
    },
    "channelTitle": "TESTE DE FIDELIDADE PRO",
    "liveBroadcastContent": "none"
   }
  },
  {
   "kind": "youtube#searchResult",
   "etag": "\"DuHzAJ-eQIiCIp7p4ldoVcVAOeY/wEkp00VxbnZLLytXusCUuxehdkM\"",
   "id": {
    "kind": "youtube#video",
    "videoId": "72uG73y5mQw"
   },
   "snippet": {
    "publishedAt": "2018-06-22T19:07:54.000Z",
    "channelId": "UCP1pBlVld8IJzfa58Y5xg1A",
    "title": "THEKAIRI78 TESTE LE TÉLÉSKI NAUTIQUE ! IL PANIQUE ! #5",
    "description": "Nouvel épisode de la semaine où TK78 vient à la maison pour perdre du poids! Aujourd'hui on va lui faire tester le téléski-nautique! Autre épisode de la série ...",
    "thumbnails": {
     "default": {
      "url": "https://i.ytimg.com/vi/72uG73y5mQw/default.jpg",
      "width": 120,
      "height": 90
     },
     "medium": {
      "url": "https://i.ytimg.com/vi/72uG73y5mQw/mqdefault.jpg",
      "width": 320,
      "height": 180
     },
     "high": {
      "url": "https://i.ytimg.com/vi/72uG73y5mQw/hqdefault.jpg",
      "width": 480,
      "height": 360
     }
    },
    "channelTitle": "MrLEV12 ́s LIFE",
    "liveBroadcastContent": "none"
   }
  },
  {
   "kind": "youtube#searchResult",
   "etag": "\"DuHzAJ-eQIiCIp7p4ldoVcVAOeY/MheO5yOeeVDIaPb4isjfZ4qFS6Y\"",
   "id": {
    "kind": "youtube#video",
    "videoId": "mYc55YAxN-8"
   },
   "snippet": {
    "publishedAt": "2018-06-23T14:22:53.000Z",
    "channelId": "UCvZG5vuLJRlREfgDggWlaGw",
    "title": "JE TESTE LES PRODUIT FARIDA B ET D'AUTRES DÉCOUVERTES! + CONCOURS avec ALI'SKIN BOX",
    "description": "Je teste les produits de Farida b experte des cheveux frisés, et aussi d'autres produits! CONCOURS   Ali'sikn lance un teste beauté ou 20 gagnant pourront ...",
    "thumbnails": {
     "default": {
      "url": "https://i.ytimg.com/vi/mYc55YAxN-8/default.jpg",
      "width": 120,
      "height": 90
     },
     "medium": {
      "url": "https://i.ytimg.com/vi/mYc55YAxN-8/mqdefault.jpg",
      "width": 320,
      "height": 180
     },
     "high": {
      "url": "https://i.ytimg.com/vi/mYc55YAxN-8/hqdefault.jpg",
      "width": 480,
      "height": 360
     }
    },
    "channelTitle": "Curly Li",
    "liveBroadcastContent": "none"
   }
  },
  {
   "kind": "youtube#searchResult",
   "etag": "\"DuHzAJ-eQIiCIp7p4ldoVcVAOeY/t35j-Mn11Ypd4ZWxTMFwYKKWKKU\"",
   "id": {
    "kind": "youtube#video",
    "videoId": "vBRNeA1uZoE"
   },
   "snippet": {
    "publishedAt": "2018-06-23T09:00:11.000Z",
    "channelId": "UCeGEv5MBdmGMgZFPrAlEmFA",
    "title": "Je teste les fast-foods en Chine",
    "description": "Vous pouvez soutenir le financement des vidéos en achetant des bonbons japonais sur ma boutique: http://www.candysan.com ou http://www.candysanbox.com ...",
    "thumbnails": {
     "default": {
      "url": "https://i.ytimg.com/vi/vBRNeA1uZoE/default.jpg",
      "width": 120,
      "height": 90
     },
     "medium": {
      "url": "https://i.ytimg.com/vi/vBRNeA1uZoE/mqdefault.jpg",
      "width": 320,
      "height": 180
     },
     "high": {
      "url": "https://i.ytimg.com/vi/vBRNeA1uZoE/hqdefault.jpg",
      "width": 480,
      "height": 360
     }
    },
    "channelTitle": "Ici Japon",
    "liveBroadcastContent": "none"
   }
  },
  {
   "kind": "youtube#searchResult",
   "etag": "\"DuHzAJ-eQIiCIp7p4ldoVcVAOeY/0bjdqFk23IMfr_XGqWL85nuII0g\"",
   "id": {
    "kind": "youtube#video",
    "videoId": "yUUK3kEgWMw"
   },
   "snippet": {
    "publishedAt": "2018-06-23T10:15:23.000Z",
    "channelId": "UCFLgXDAqAcYYkoKjHNqGvqw",
    "title": "ON TESTE LES YEUX GRIS, VERTS... [Mood Lentilles] | THE BROKE GIRLZ",
    "description": "Hello, regardez en 1080p :) · Lien vers le site mood-lentilles.com · Code Promo BROKEGIRLZ20 N'hésitez pas à liker, commenter, partager et surtout vous ...",
    "thumbnails": {
     "default": {
      "url": "https://i.ytimg.com/vi/yUUK3kEgWMw/default.jpg",
      "width": 120,
      "height": 90
     },
     "medium": {
      "url": "https://i.ytimg.com/vi/yUUK3kEgWMw/mqdefault.jpg",
      "width": 320,
      "height": 180
     },
     "high": {
      "url": "https://i.ytimg.com/vi/yUUK3kEgWMw/hqdefault.jpg",
      "width": 480,
      "height": 360
     }
    },
    "channelTitle": "The Broke Girlz",
    "liveBroadcastContent": "none"
   }
  },
  {
   "kind": "youtube#searchResult",
   "etag": "\"DuHzAJ-eQIiCIp7p4ldoVcVAOeY/67gs5H02nCY9rNh9f3VitHaanhU\"",
   "id": {
    "kind": "youtube#video",
    "videoId": "9aOVwTrSUPg"
   },
   "snippet": {
    "publishedAt": "2018-06-22T20:05:27.000Z",
    "channelId": "UCGBIIPnw0AYM3BFsmTsjeAw",
    "title": "EMERSON FITTIPALDI FALA DO TESTE DE SENNA NA INDY E CONTA SUA HISTÓRIA! - NA MURETA COM RUBITO #5",
    "description": "Uma das maiores lendas do automobilismo mundial senta na Mureta com Rubito! O bicampeão Emerson Fittipaldi fala sobre o início da sua carreira e conta ...",
    "thumbnails": {
     "default": {
      "url": "https://i.ytimg.com/vi/9aOVwTrSUPg/default.jpg",
      "width": 120,
      "height": 90
     },
     "medium": {
      "url": "https://i.ytimg.com/vi/9aOVwTrSUPg/mqdefault.jpg",
      "width": 320,
      "height": 180
     },
     "high": {
      "url": "https://i.ytimg.com/vi/9aOVwTrSUPg/hqdefault.jpg",
      "width": 480,
      "height": 360
     }
    },
    "channelTitle": "Acelerados",
    "liveBroadcastContent": "none"
   }
  },
  {
   "kind": "youtube#searchResult",
   "etag": "\"DuHzAJ-eQIiCIp7p4ldoVcVAOeY/pCOPAjtVG21J75aAD8U62etbLKU\"",
   "id": {
    "kind": "youtube#video",
    "videoId": "0s2tuy1F2Sw"
   },
   "snippet": {
    "publishedAt": "2018-06-23T04:39:00.000Z",
    "channelId": "UCUxhV-IZv4aXH_ilaG7MqlQ",
    "title": "LIVE TESTE* Tô com SKILL de PRO-Player?! JeanHarD JOGANDO FORTNITE AO VIVO*",
    "description": "Chega ae bora curtir uma gameplay daora de FORTNITE. https://www.instagram.com/jeanlealribeiro/",
    "thumbnails": {
     "default": {
      "url": "https://i.ytimg.com/vi/0s2tuy1F2Sw/default.jpg",
      "width": 120,
      "height": 90
     },
     "medium": {
      "url": "https://i.ytimg.com/vi/0s2tuy1F2Sw/mqdefault.jpg",
      "width": 320,
      "height": 180
     },
     "high": {
      "url": "https://i.ytimg.com/vi/0s2tuy1F2Sw/hqdefault.jpg",
      "width": 480,
      "height": 360
     }
    },
    "channelTitle": "JeanHarD",
    "liveBroadcastContent": "none"
   }
  },
  {
   "kind": "youtube#searchResult",
   "etag": "\"DuHzAJ-eQIiCIp7p4ldoVcVAOeY/oLjnSE-oMUNEw9l0b47x1WiDxb0\"",
   "id": {
    "kind": "youtube#video",
    "videoId": "cTWJ83ZTbNg"
   },
   "snippet": {
    "publishedAt": "2018-05-27T22:33:18.000Z",
    "channelId": "UCYltkl_E2ZuUV9WyNhUKZsw",
    "title": "TOP 1 TESTE DE FIDELIDADE JUNHO 2018 SEDUTORA TOTALMENTE NUA!",
    "description": "Teste De Fidelidade HD Maio-2018 2 sedutoras nuas! Melhor Teste de fidelidade 2018! A Sedutora ficou peladas TOP 3 - Teste de fidelidade 2018 sedutora ...",
    "thumbnails": {
     "default": {
      "url": "https://i.ytimg.com/vi/cTWJ83ZTbNg/default.jpg",
      "width": 120,
      "height": 90
     },
     "medium": {
      "url": "https://i.ytimg.com/vi/cTWJ83ZTbNg/mqdefault.jpg",
      "width": 320,
      "height": 180
     },
     "high": {
      "url": "https://i.ytimg.com/vi/cTWJ83ZTbNg/hqdefault.jpg",
      "width": 480,
      "height": 360
     }
    },
    "channelTitle": "Super Videos",
    "liveBroadcastContent": "none"
   }
  },
  {
   "kind": "youtube#searchResult",
   "etag": "\"DuHzAJ-eQIiCIp7p4ldoVcVAOeY/spxHNecAdhGoqmUjwLSBzPUbPOw\"",
   "id": {
    "kind": "youtube#video",
    "videoId": "aakVIwe0qfc"
   },
   "snippet": {
    "publishedAt": "2018-06-22T21:09:36.000Z",
    "channelId": "UChHkBrsqbRiitgS4OuX9tAw",
    "title": "JE TESTE LE BEAUTY GUN ! CINDYCHTIS",
    "description": "Abonnez-vous en cliquant sur la petite cloche pour ne louper aucune de mes vidéos ❤ Mon Blog mode / conseils beauté / déco : https://www.cindychtis.fr Mon ...",
    "thumbnails": {
     "default": {
      "url": "https://i.ytimg.com/vi/aakVIwe0qfc/default.jpg",
      "width": 120,
      "height": 90
     },
     "medium": {
      "url": "https://i.ytimg.com/vi/aakVIwe0qfc/mqdefault.jpg",
      "width": 320,
      "height": 180
     },
     "high": {
      "url": "https://i.ytimg.com/vi/aakVIwe0qfc/hqdefault.jpg",
      "width": 480,
      "height": 360
     }
    },
    "channelTitle": "Cindy Chtis",
    "liveBroadcastContent": "none"
   }
  },
  {
   "kind": "youtube#searchResult",
   "etag": "\"DuHzAJ-eQIiCIp7p4ldoVcVAOeY/i6DOhSWqjU_1gp77MfXBoRAmHGc\"",
   "id": {
    "kind": "youtube#video",
    "videoId": "wruMdlJ8UUU"
   },
   "snippet": {
    "publishedAt": "2018-06-22T16:00:09.000Z",
    "channelId": "UCQsb5TqYUeGWGpJFr8DMWsQ",
    "title": "JE TESTE UNE ENCEINTE MAGNÉTIQUE",
    "description": "Aujourd'hui, on se retrouve pour le test d'une enceinte magnétique ! (Lien plus bas) ▽ DÉROULE LA DESCRIPTION ▽ ▻ Enceinte magnétique ...",
    "thumbnails": {
     "default": {
      "url": "https://i.ytimg.com/vi/wruMdlJ8UUU/default.jpg",
      "width": 120,
      "height": 90
     },
     "medium": {
      "url": "https://i.ytimg.com/vi/wruMdlJ8UUU/mqdefault.jpg",
      "width": 320,
      "height": 180
     },
     "high": {
      "url": "https://i.ytimg.com/vi/wruMdlJ8UUU/hqdefault.jpg",
      "width": 480,
      "height": 360
     }
    },
    "channelTitle": "ANONIMAL",
    "liveBroadcastContent": "none"
   }
  },
  {
   "kind": "youtube#searchResult",
   "etag": "\"DuHzAJ-eQIiCIp7p4ldoVcVAOeY/7hHKDJfzatu4vchDzpuMymLZwcM\"",
   "id": {
    "kind": "youtube#video",
    "videoId": "dLvaqxSBqIs"
   },
   "snippet": {
    "publishedAt": "2018-06-22T19:30:01.000Z",
    "channelId": "UCXky4DpejRGd7NkZD-6UBjg",
    "title": "On teste du faux bronzage en spray 🌞🏖 | 2FILLESORDINAIRES",
    "description": "Dans cette vidéo, on essaie un système de bronzage airbrush à la maison, question de se donner un air de vacances. Il faut dire que Vanessa était ...",
    "thumbnails": {
     "default": {
      "url": "https://i.ytimg.com/vi/dLvaqxSBqIs/default.jpg",
      "width": 120,
      "height": 90
     },
     "medium": {
      "url": "https://i.ytimg.com/vi/dLvaqxSBqIs/mqdefault.jpg",
      "width": 320,
      "height": 180
     },
     "high": {
      "url": "https://i.ytimg.com/vi/dLvaqxSBqIs/hqdefault.jpg",
      "width": 480,
      "height": 360
     }
    },
    "channelTitle": "2FillesOrdinaires",
    "liveBroadcastContent": "none"
   }
  },
  {
   "kind": "youtube#searchResult",
   "etag": "\"DuHzAJ-eQIiCIp7p4ldoVcVAOeY/te6xFXNw17_b7MEZbCNe1AqYWZY\"",
   "id": {
    "kind": "youtube#video",
    "videoId": "FzSxnzUvt20"
   },
   "snippet": {
    "publishedAt": "2018-04-08T19:27:57.000Z",
    "channelId": "UCSUhIsX9Mc3cGewy0qqYGTg",
    "title": "Teste de Fidelidade #6 2K18",
    "description": "",
    "thumbnails": {
     "default": {
      "url": "https://i.ytimg.com/vi/FzSxnzUvt20/default.jpg",
      "width": 120,
      "height": 90
     },
     "medium": {
      "url": "https://i.ytimg.com/vi/FzSxnzUvt20/mqdefault.jpg",
      "width": 320,
      "height": 180
     },
     "high": {
      "url": "https://i.ytimg.com/vi/FzSxnzUvt20/hqdefault.jpg",
      "width": 480,
      "height": 360
     }
    },
    "channelTitle": "BaixAki - 9dades",
    "liveBroadcastContent": "none"
   }
  },
  {
   "kind": "youtube#searchResult",
   "etag": "\"DuHzAJ-eQIiCIp7p4ldoVcVAOeY/qxfUJsXcVi3Y2H-yZAa8-MhXhbQ\"",
   "id": {
    "kind": "youtube#video",
    "videoId": "v5AGH_6GneA"
   },
   "snippet": {
    "publishedAt": "2018-06-22T22:55:31.000Z",
    "channelId": "UCtgtNbtdHZzF586-Hhn7ayQ",
    "title": "Teste Mini Pipa Mucha Mucha do Brasil « Renatinho8263 »",
    "description": "Teste da mini pipa mucha mucha do Brasil de 22cm, será que a pipinha ficou da hora no alto? acompanhem o vídeo teste da pipinha ai.",
    "thumbnails": {
     "default": {
      "url": "https://i.ytimg.com/vi/v5AGH_6GneA/default.jpg",
      "width": 120,
      "height": 90
     },
     "medium": {
      "url": "https://i.ytimg.com/vi/v5AGH_6GneA/mqdefault.jpg",
      "width": 320,
      "height": 180
     },
     "high": {
      "url": "https://i.ytimg.com/vi/v5AGH_6GneA/hqdefault.jpg",
      "width": 480,
      "height": 360
     }
    },
    "channelTitle": "Renatinho8263",
    "liveBroadcastContent": "none"
   }
  },
  {
   "kind": "youtube#searchResult",
   "etag": "\"DuHzAJ-eQIiCIp7p4ldoVcVAOeY/GJxjJ0cB2Tv4CK8g5E9SYler73I\"",
   "id": {
    "kind": "youtube#video",
    "videoId": "tcYVEd2zEYk"
   },
   "snippet": {
    "publishedAt": "2017-05-23T03:00:40.000Z",
    "channelId": "UC2i-nZqZoZkkAE816Z0FZvw",
    "title": "VOCÊ TEM A MENTE FORTE? TESTE PSICOLÓGICO | TESTE DE STROOP",
    "description": "VOCÊ TEM A MENTE FORTE? TESTE PSICOLÓGICO | TESTE DE STROOP Você já se perguntou o quão forte sua mente realmente é? Em 1935, o psicólogo ...",
    "thumbnails": {
     "default": {
      "url": "https://i.ytimg.com/vi/tcYVEd2zEYk/default.jpg",
      "width": 120,
      "height": 90
     },
     "medium": {
      "url": "https://i.ytimg.com/vi/tcYVEd2zEYk/mqdefault.jpg",
      "width": 320,
      "height": 180
     },
     "high": {
      "url": "https://i.ytimg.com/vi/tcYVEd2zEYk/hqdefault.jpg",
      "width": 480,
      "height": 360
     }
    },
    "channelTitle": "IncrivelMente Curiosa",
    "liveBroadcastContent": "none"
   }
  },
  {
   "kind": "youtube#searchResult",
   "etag": "\"DuHzAJ-eQIiCIp7p4ldoVcVAOeY/PhqJaGjzqP30O9GcqXJXJj4-mXo\"",
   "id": {
    "kind": "youtube#video",
    "videoId": "wJqqE1YweoY"
   },
   "snippet": {
    "publishedAt": "2018-06-22T23:04:26.000Z",
    "channelId": "UCFcVyB3qN7PMy28ra9ZcNhw",
    "title": "Kia Cerato 1.6 Teste de Rodagem #2",
    "description": "Testamos o carro da marca Coreana KIA que significa sair da Asia para o Mundo entregando carros com qualidade e muita tecnologia, hoje em sua 3ª geração ...",
    "thumbnails": {
     "default": {
      "url": "https://i.ytimg.com/vi/wJqqE1YweoY/default.jpg",
      "width": 120,
      "height": 90
     },
     "medium": {
      "url": "https://i.ytimg.com/vi/wJqqE1YweoY/mqdefault.jpg",
      "width": 320,
      "height": 180
     },
     "high": {
      "url": "https://i.ytimg.com/vi/wJqqE1YweoY/hqdefault.jpg",
      "width": 480,
      "height": 360
     }
    },
    "channelTitle": "OBusca Play",
    "liveBroadcastContent": "none"
   }
  },
  {
   "kind": "youtube#searchResult",
   "etag": "\"DuHzAJ-eQIiCIp7p4ldoVcVAOeY/vwuUQkb82Sg-v9I0JiD264aUS50\"",
   "id": {
    "kind": "youtube#video",
    "videoId": "QJdc9-RjXVA"
   },
   "snippet": {
    "publishedAt": "2016-12-24T18:15:34.000Z",
    "channelId": "UChYkldqKWymAKTsPku_tDfg",
    "title": "DESCUBRA QUEM REALMENTE VOCÊ É.  TESTE DE VÍDEO",
    "description": "Olá a todos! Você acha que se conhece plenamente? Nós também ... Mas há alguns aspectos sobre nós que não percebemos ou simplesmente não queremos ...",
    "thumbnails": {
     "default": {
      "url": "https://i.ytimg.com/vi/QJdc9-RjXVA/default.jpg",
      "width": 120,
      "height": 90
     },
     "medium": {
      "url": "https://i.ytimg.com/vi/QJdc9-RjXVA/mqdefault.jpg",
      "width": 320,
      "height": 180
     },
     "high": {
      "url": "https://i.ytimg.com/vi/QJdc9-RjXVA/hqdefault.jpg",
      "width": 480,
      "height": 360
     }
    },
    "channelTitle": "#Refúgio Mental",
    "liveBroadcastContent": "none"
   }
  },
  {
   "kind": "youtube#searchResult",
   "etag": "\"DuHzAJ-eQIiCIp7p4ldoVcVAOeY/5UhWLto1kFI_UKjMR20msRgB2qg\"",
   "id": {
    "kind": "youtube#video",
    "videoId": "eE_KuLkpqHg"
   },
   "snippet": {
    "publishedAt": "2018-06-22T15:00:03.000Z",
    "channelId": "UClX_akPlgxJ9s1LMxBmAaag",
    "title": "LOOP NO ESPAÇO TEMPO - DAYZ TESTE BETA",
    "description": "Não esqueça de deixar o seu like na humildade :) Donation: https://youtube.streamlabs.com/playloganz PayPal : http://goo.gl/4vJBsO PagSeguro ...",
    "thumbnails": {
     "default": {
      "url": "https://i.ytimg.com/vi/eE_KuLkpqHg/default.jpg",
      "width": 120,
      "height": 90
     },
     "medium": {
      "url": "https://i.ytimg.com/vi/eE_KuLkpqHg/mqdefault.jpg",
      "width": 320,
      "height": 180
     },
     "high": {
      "url": "https://i.ytimg.com/vi/eE_KuLkpqHg/hqdefault.jpg",
      "width": 480,
      "height": 360
     }
    },
    "channelTitle": "Logan Z",
    "liveBroadcastContent": "none"
   }
  },
  {
   "kind": "youtube#searchResult",
   "etag": "\"DuHzAJ-eQIiCIp7p4ldoVcVAOeY/J8bKUlw_h02vWl-tlVdG9h-FWpw\"",
   "id": {
    "kind": "youtube#video",
    "videoId": "71dnSwLQ7-w"
   },
   "snippet": {
    "publishedAt": "2018-06-22T13:46:17.000Z",
    "channelId": "UCQIa23AnSekU05epRPimCRQ",
    "title": "[SEPHORA x RICHAARD] On teste les sourcils ARC-EN-CIEL ?! 🌈😱",
    "description": "Aujourd'hui Richard retrouve Cristelle pour faire un petit challenge SOURCILS ! Grâce aux nouveaux produits sourcils colorés Kat Von D, ils vont essayer de ...",
    "thumbnails": {
     "default": {
      "url": "https://i.ytimg.com/vi/71dnSwLQ7-w/default.jpg",
      "width": 120,
      "height": 90
     },
     "medium": {
      "url": "https://i.ytimg.com/vi/71dnSwLQ7-w/mqdefault.jpg",
      "width": 320,
      "height": 180
     },
     "high": {
      "url": "https://i.ytimg.com/vi/71dnSwLQ7-w/hqdefault.jpg",
      "width": 480,
      "height": 360
     }
    },
    "channelTitle": "SEPHORAFRANCE",
    "liveBroadcastContent": "none"
   }
  },
  {
   "kind": "youtube#searchResult",
   "etag": "\"DuHzAJ-eQIiCIp7p4ldoVcVAOeY/3Qsx7tN972lNfYPFCfoZZFmtPo4\"",
   "id": {
    "kind": "youtube#video",
    "videoId": "H9t73fKpwjQ"
   },
   "snippet": {
    "publishedAt": "2016-12-02T18:27:39.000Z",
    "channelId": "UC0C8tv74WkPgbYUvWq37QHw",
    "title": "Melhor teste de fidelidade",
    "description": "CANAL PACEIRO SER INSCREVER LUAN TV https://youtu.be/sWX5HuqOCrU.",
    "thumbnails": {
     "default": {
      "url": "https://i.ytimg.com/vi/H9t73fKpwjQ/default.jpg",
      "width": 120,
      "height": 90
     },
     "medium": {
      "url": "https://i.ytimg.com/vi/H9t73fKpwjQ/mqdefault.jpg",
      "width": 320,
      "height": 180
     },
     "high": {
      "url": "https://i.ytimg.com/vi/H9t73fKpwjQ/hqdefault.jpg",
      "width": 480,
      "height": 360
     }
    },
    "channelTitle": "Teste de fidelidade HD",
    "liveBroadcastContent": "none"
   }
  },
  {
   "kind": "youtube#searchResult",
   "etag": "\"DuHzAJ-eQIiCIp7p4ldoVcVAOeY/9_G-vOHX2h4x1FGFtMRSYwexsPo\"",
   "id": {
    "kind": "youtube#video",
    "videoId": "LINxk2qfYUo"
   },
   "snippet": {
    "publishedAt": "2018-06-23T19:25:50.000Z",
    "channelId": "UCQ05Y7n2yMIQ2IFK_jMzcgA",
    "title": "TESTE DRIVE NA YAMAHA FZ25 FAZER 250 ABS 2018 #DIEGOCM",
    "description": "Facebook: @diegocmofical https://www.facebook.com/diegocmoficial Instagram : @diegocmoficial https://www.instagram.com/diegocmoficial/ Twitter ...",
    "thumbnails": {
     "default": {
      "url": "https://i.ytimg.com/vi/LINxk2qfYUo/default.jpg",
      "width": 120,
      "height": 90
     },
     "medium": {
      "url": "https://i.ytimg.com/vi/LINxk2qfYUo/mqdefault.jpg",
      "width": 320,
      "height": 180
     },
     "high": {
      "url": "https://i.ytimg.com/vi/LINxk2qfYUo/hqdefault.jpg",
      "width": 480,
      "height": 360
     }
    },
    "channelTitle": "Diego CM",
    "liveBroadcastContent": "none"
   }
  },
  {
   "kind": "youtube#searchResult",
   "etag": "\"DuHzAJ-eQIiCIp7p4ldoVcVAOeY/sxcRNy8iXAGxLttM2GXUdKydCm4\"",
   "id": {
    "kind": "youtube#video",
    "videoId": "fOH7wTIL4hg"
   },
   "snippet": {
    "publishedAt": "2017-10-29T13:25:29.000Z",
    "channelId": "UChgpbgcl3EuMaQ-Zou3dV2A",
    "title": "Teste Show Teste de Fidelidade Parte 4 6 2 new teste",
    "description": "",
    "thumbnails": {
     "default": {
      "url": "https://i.ytimg.com/vi/fOH7wTIL4hg/default.jpg",
      "width": 120,
      "height": 90
     },
     "medium": {
      "url": "https://i.ytimg.com/vi/fOH7wTIL4hg/mqdefault.jpg",
      "width": 320,
      "height": 180
     },
     "high": {
      "url": "https://i.ytimg.com/vi/fOH7wTIL4hg/hqdefault.jpg",
      "width": 480,
      "height": 360
     }
    },
    "channelTitle": "Albert Jacoby",
    "liveBroadcastContent": "none"
   }
  },
  {
   "kind": "youtube#searchResult",
   "etag": "\"DuHzAJ-eQIiCIp7p4ldoVcVAOeY/y59jkIWK-zxry02LHw-snpEiEdQ\"",
   "id": {
    "kind": "youtube#video",
    "videoId": "SPbEEL_X-6I"
   },
   "snippet": {
    "publishedAt": "2018-01-19T23:00:07.000Z",
    "channelId": "UCGAY8t6KCq0tXyBFfjXeHZw",
    "title": "LEMME GET A JOB! Always Teste PRANK!",
    "description": "Always Teste went out job hunting today.",
    "thumbnails": {
     "default": {
      "url": "https://i.ytimg.com/vi/SPbEEL_X-6I/default.jpg",
      "width": 120,
      "height": 90
     },
     "medium": {
      "url": "https://i.ytimg.com/vi/SPbEEL_X-6I/mqdefault.jpg",
      "width": 320,
      "height": 180
     },
     "high": {
      "url": "https://i.ytimg.com/vi/SPbEEL_X-6I/hqdefault.jpg",
      "width": 480,
      "height": 360
     }
    },
    "channelTitle": "Ed Bassmaster",
    "liveBroadcastContent": "none"
   }
  },
  {
   "kind": "youtube#searchResult",
   "etag": "\"DuHzAJ-eQIiCIp7p4ldoVcVAOeY/ibOLCm8ptH-C0LPmmiyTmlGfIlc\"",
   "id": {
    "kind": "youtube#video",
    "videoId": "AaDy6Av5Wxg"
   },
   "snippet": {
    "publishedAt": "2018-06-23T10:57:11.000Z",
    "channelId": "UC0UrSOyeKhuag1sppwiRMKQ",
    "title": "Teste",
    "description": "",
    "thumbnails": {
     "default": {
      "url": "https://i.ytimg.com/vi/AaDy6Av5Wxg/default.jpg",
      "width": 120,
      "height": 90
     },
     "medium": {
      "url": "https://i.ytimg.com/vi/AaDy6Av5Wxg/mqdefault.jpg",
      "width": 320,
      "height": 180
     },
     "high": {
      "url": "https://i.ytimg.com/vi/AaDy6Av5Wxg/hqdefault.jpg",
      "width": 480,
      "height": 360
     }
    },
    "channelTitle": "Minuto JiuJitsu",
    "liveBroadcastContent": "none"
   }
  },
  {
   "kind": "youtube#searchResult",
   "etag": "\"DuHzAJ-eQIiCIp7p4ldoVcVAOeY/erEYRBR-HL3OHzQXcgf3_XvYXiM\"",
   "id": {
    "kind": "youtube#video",
    "videoId": "dBis5B3k3ZI"
   },
   "snippet": {
    "publishedAt": "2017-08-12T15:20:01.000Z",
    "channelId": "UCD-3WNFjbZ4aLSjETn2eqGg",
    "title": "teste de fidelidade tente nao rir 16 HD",
    "description": "GALERA SE INSCREVAM NO CANAL TO PREPARANDO MAIS 50 TESTES!! SE INSCREVAM PARA NAO PERDER E SER AVISADO QND EU POSTAR TUDO ...",
    "thumbnails": {
     "default": {
      "url": "https://i.ytimg.com/vi/dBis5B3k3ZI/default.jpg",
      "width": 120,
      "height": 90
     },
     "medium": {
      "url": "https://i.ytimg.com/vi/dBis5B3k3ZI/mqdefault.jpg",
      "width": 320,
      "height": 180
     },
     "high": {
      "url": "https://i.ytimg.com/vi/dBis5B3k3ZI/hqdefault.jpg",
      "width": 480,
      "height": 360
     }
    },
    "channelTitle": "pacopiscinas100",
    "liveBroadcastContent": "none"
   }
  },
  {
   "kind": "youtube#searchResult",
   "etag": "\"DuHzAJ-eQIiCIp7p4ldoVcVAOeY/QjzhWoNOveN3Jqb-QchOa5CQjSc\"",
   "id": {
    "kind": "youtube#video",
    "videoId": "cKx3iDI5PjQ"
   },
   "snippet": {
    "publishedAt": "2017-02-26T13:05:02.000Z",
    "channelId": "UCmSVVJfrnrsb-OvaywIaeTQ",
    "title": "VEZI ULTIMA CIFRA? 7 Teste Pentru Vedere",
    "description": "CRISTIAN MARIUS: https://www.youtube.com/user/cris14146 Salutare prieteni, daca v-a placut episodul de astazi nu uitati sa dati un like si sa va abonati la ...",
    "thumbnails": {
     "default": {
      "url": "https://i.ytimg.com/vi/cKx3iDI5PjQ/default.jpg",
      "width": 120,
      "height": 90
     },
     "medium": {
      "url": "https://i.ytimg.com/vi/cKx3iDI5PjQ/mqdefault.jpg",
      "width": 320,
      "height": 180
     },
     "high": {
      "url": "https://i.ytimg.com/vi/cKx3iDI5PjQ/hqdefault.jpg",
      "width": 480,
      "height": 360
     }
    },
    "channelTitle": "Motan Show",
    "liveBroadcastContent": "none"
   }
  }
 ]
}